{
  "name": "query+revisions",
  "mode": "prop",
  "fieldname": "revisions",
  "prop": "rvprop",
  "wrap_in_vec": true,
  "fields": [
    {
      "name": "revid",
      "type_": "u64",
      "prop": "ids"
    },
    {
      "name": "parentid",
      "type_": "u64",
      "prop": "ids"
    },
    {
      "name": "minor",
      "type_": "bool",
      "default": true,
      "prop": "flags"
    },
    {
      "name": "timestamp",
      "type_": "timestamp",
      "prop": "timestamp"
    },
    {
      "name": "userhidden",
      "type_": "bool",
      "default": true,
      "prop": "user||userid"
    },
    {
      "name": "user",
      "type_": {
        "inner": "String",
        "option": true
      },
      "prop": "user"
    },
    {
      "name": "anon",
      "type_": "bool",
      "default": true,
      "prop": "user||userid"
    },
    {
      "name": "userid",
      "type_": {
        "inner": "u32",
        "option": true
      },
      "prop": "userid"
    },
    {
      "name": "size",
      "type_": "u32",
      "prop": "size"
    },
    {
      "name": "sha1",
      "type_": "String",
      "prop": "sha1"
    },
    {
      "name": "comment",
      "type_": {
        "inner": "String",
        "option": true
      },
      "prop": "comment"
    },
    {
      "name": "commenthidden",
      "type_": "bool",
      "default": true,
      "prop": "comment||parsedcomment"
    },
    {
      "name": "parsedcomment",
      "type_": {
        "inner": "String",
        "option": true
      },
      "prop": "parsedcomment"
    },
    {
      "name": "tags",
      "type_": {
        "inner": "String",
        "vec": true
      },
      "prop": "tags"
    },
    {
      "name": "roles",
      "type_": {
        "inner": "String",
        "vec": true
      },
      "prop": "roles"
    }
  ],
  "test_extra": {
    "assert": {
      "continue": false,
      "length": 3
    },
    "params": {
      "titles": "Taylor Swift|Talk:Taylor Swift|This article does not exist, please"
    }
  }
}
